{
    "items": [
      {
        "album": {
          "album_type": "ALBUM",
          "artists": [
            {
              "external_urls": {
                "spotify": "https://open.spotify.com/artist/7Ln80lUS6He07XvHI8qqHH"
              },
              "href": "https://api.spotify.com/v1/artists/7Ln80lUS6He07XvHI8qqHH",
              "id": "7Ln80lUS6He07XvHI8qqHH",
              "name": "Arctic Monkeys",
              "type": "artist",
              "uri": "spotify:artist:7Ln80lUS6He07XvHI8qqHH"
            }
          ],
          "available_markets": [
            "AD",
            "AE",
            "AR",
            "AT",
            "AU",
            "BE",
            "BG",
            "BH",
            "BO",
            "BR",
            "CH",
            "CL",
            "CO",
            "CR",
            "CY",
            "CZ",
            "DE",
            "DK",
            "DO",
            "DZ",
            "EC",
            "EE",
            "EG",
            "ES",
            "FI",
            "FR",
            "GB",
            "GR",
            "GT",
            "HK",
            "HN",
            "HU",
            "ID",
            "IE",
            "IL",
            "IN",
            "IS",
            "IT",
            "JO",
            "JP",
            "KW",
            "LB",
            "LI",
            "LT",
            "LU",
            "LV",
            "MA",
            "MC",
            "MT",
            "MX",
            "MY",
            "NI",
            "NL",
            "NO",
            "NZ",
            "OM",
            "PA",
            "PE",
            "PH",
            "PL",
            "PS",
            "PT",
            "PY",
            "QA",
            "RO",
            "SA",
            "SE",
            "SG",
            "SK",
            "SV",
            "TH",
            "TN",
            "TR",
            "TW",
            "UY",
            "VN",
            "ZA"
          ],
          "external_urls": {
            "spotify": "https://open.spotify.com/album/5IEoiwkThhRmSMBANhpxl2"
          },
          "href": "https://api.spotify.com/v1/albums/5IEoiwkThhRmSMBANhpxl2",
          "id": "5IEoiwkThhRmSMBANhpxl2",
          "images": [
            {
              "height": 640,
              "url": "https://i.scdn.co/image/3a2805cfc2d55367865b572cd536bfddf66fe267",
              "width": 640
            },
            {
              "height": 300,
              "url": "https://i.scdn.co/image/e54f0120fe0e88caddc6d6b559afd47bbf2fd032",
              "width": 300
            },
            {
              "height": 64,
              "url": "https://i.scdn.co/image/ba710ab0bb2bf5bfa080fc3d1e440fbc0b0011e8",
              "width": 64
            }
          ],
          "name": "Humbug",
          "release_date": "2009-08-20",
          "release_date_precision": "day",
          "total_tracks": 10,
          "type": "album",
          "uri": "spotify:album:5IEoiwkThhRmSMBANhpxl2"
        },
        "artists": [
          {
            "external_urls": {
              "spotify": "https://open.spotify.com/artist/7Ln80lUS6He07XvHI8qqHH"
            },
            "href": "https://api.spotify.com/v1/artists/7Ln80lUS6He07XvHI8qqHH",
            "id": "7Ln80lUS6He07XvHI8qqHH",
            "name": "Arctic Monkeys",
            "type": "artist",
            "uri": "spotify:artist:7Ln80lUS6He07XvHI8qqHH"
          }
        ],
        "available_markets": [
          "AD",
          "AE",
          "AR",
          "AT",
          "AU",
          "BE",
          "BG",
          "BH",
          "BO",
          "BR",
          "CH",
          "CL",
          "CO",
          "CR",
          "CY",
          "CZ",
          "DE",
          "DK",
          "DO",
          "DZ",
          "EC",
          "EE",
          "EG",
          "ES",
          "FI",
          "FR",
          "GB",
          "GR",
          "GT",
          "HK",
          "HN",
          "HU",
          "ID",
          "IE",
          "IL",
          "IN",
          "IS",
          "IT",
          "JO",
          "JP",
          "KW",
          "LB",
          "LI",
          "LT",
          "LU",
          "LV",
          "MA",
          "MC",
          "MT",
          "MX",
          "MY",
          "NI",
          "NL",
          "NO",
          "NZ",
          "OM",
          "PA",
          "PE",
          "PH",
          "PL",
          "PS",
          "PT",
          "PY",
          "QA",
          "RO",
          "SA",
          "SE",
          "SG",
          "SK",
          "SV",
          "TH",
          "TN",
          "TR",
          "TW",
          "UY",
          "VN",
          "ZA"
        ],
        "disc_number": 1,
        "duration_ms": 205746,
        "explicit": false,
        "external_ids": {
          "isrc": "GBCEL0900442"
        },
        "external_urls": {
          "spotify": "https://open.spotify.com/track/2hmHlBM0kPBm17Y7nVIW9f"
        },
        "href": "https://api.spotify.com/v1/tracks/2hmHlBM0kPBm17Y7nVIW9f",
        "id": "2hmHlBM0kPBm17Y7nVIW9f",
        "is_local": false,
        "name": "My Propeller",
        "popularity": 55,
        "preview_url": "https://p.scdn.co/mp3-preview/9d889431cc326d643400fadbb697fdbc12965227?cid=774b29d4f13844c495f206cafdad9c86",
        "track_number": 1,
        "type": "track",
        "uri": "spotify:track:2hmHlBM0kPBm17Y7nVIW9f"
      },
      {
        "album": {
          "album_type": "ALBUM",
          "artists": [
            {
              "external_urls": {
                "spotify": "https://open.spotify.com/artist/23NIwARd4vPbxt3wwNnJ6k"
              },
              "href": "https://api.spotify.com/v1/artists/23NIwARd4vPbxt3wwNnJ6k",
              "id": "23NIwARd4vPbxt3wwNnJ6k",
              "name": "Parquet Courts",
              "type": "artist",
              "uri": "spotify:artist:23NIwARd4vPbxt3wwNnJ6k"
            }
          ],
          "available_markets": [
            "AD",
            "AE",
            "AR",
            "AT",
            "AU",
            "BE",
            "BG",
            "BH",
            "BO",
            "BR",
            "CA",
            "CH",
            "CL",
            "CO",
            "CR",
            "CY",
            "CZ",
            "DE",
            "DK",
            "DO",
            "DZ",
            "EC",
            "EE",
            "EG",
            "ES",
            "FI",
            "FR",
            "GB",
            "GR",
            "GT",
            "HK",
            "HN",
            "HU",
            "ID",
            "IE",
            "IL",
            "IN",
            "IS",
            "IT",
            "JO",
            "JP",
            "KW",
            "LB",
            "LI",
            "LT",
            "LU",
            "LV",
            "MA",
            "MC",
            "MT",
            "MX",
            "MY",
            "NI",
            "NL",
            "NO",
            "NZ",
            "OM",
            "PA",
            "PE",
            "PH",
            "PL",
            "PS",
            "PT",
            "PY",
            "QA",
            "RO",
            "SA",
            "SE",
            "SG",
            "SK",
            "SV",
            "TH",
            "TN",
            "TR",
            "TW",
            "US",
            "UY",
            "VN",
            "ZA"
          ],
          "external_urls": {
            "spotify": "https://open.spotify.com/album/5uTI2HcpAywDP8Vo1DpJta"
          },
          "href": "https://api.spotify.com/v1/albums/5uTI2HcpAywDP8Vo1DpJta",
          "id": "5uTI2HcpAywDP8Vo1DpJta",
          "images": [
            {
              "height": 640,
              "url": "https://i.scdn.co/image/f944e7e57d82b4b4a35e930d8ab2895bcedfa86f",
              "width": 640
            },
            {
              "height": 300,
              "url": "https://i.scdn.co/image/dc031fc6b7c4823d3a429acfa32f8435b04c2ae9",
              "width": 300
            },
            {
              "height": 64,
              "url": "https://i.scdn.co/image/7dd16ab8e825fa1c9011c12cba62b7967926163f",
              "width": 64
            }
          ],
          "name": "Wide Awake!",
          "release_date": "2018-05-18",
          "release_date_precision": "day",
          "total_tracks": 13,
          "type": "album",
          "uri": "spotify:album:5uTI2HcpAywDP8Vo1DpJta"
        },
        "artists": [
          {
            "external_urls": {
              "spotify": "https://open.spotify.com/artist/23NIwARd4vPbxt3wwNnJ6k"
            },
            "href": "https://api.spotify.com/v1/artists/23NIwARd4vPbxt3wwNnJ6k",
            "id": "23NIwARd4vPbxt3wwNnJ6k",
            "name": "Parquet Courts",
            "type": "artist",
            "uri": "spotify:artist:23NIwARd4vPbxt3wwNnJ6k"
          }
        ],
        "available_markets": [
          "AD",
          "AE",
          "AR",
          "AT",
          "AU",
          "BE",
          "BG",
          "BH",
          "BO",
          "BR",
          "CA",
          "CH",
          "CL",
          "CO",
          "CR",
          "CY",
          "CZ",
          "DE",
          "DK",
          "DO",
          "DZ",
          "EC",
          "EE",
          "EG",
          "ES",
          "FI",
          "FR",
          "GB",
          "GR",
          "GT",
          "HK",
          "HN",
          "HU",
          "ID",
          "IE",
          "IL",
          "IN",
          "IS",
          "IT",
          "JO",
          "JP",
          "KW",
          "LB",
          "LI",
          "LT",
          "LU",
          "LV",
          "MA",
          "MC",
          "MT",
          "MX",
          "MY",
          "NI",
          "NL",
          "NO",
          "NZ",
          "OM",
          "PA",
          "PE",
          "PH",
          "PL",
          "PS",
          "PT",
          "PY",
          "QA",
          "RO",
          "SA",
          "SE",
          "SG",
          "SK",
          "SV",
          "TH",
          "TN",
          "TR",
          "TW",
          "US",
          "UY",
          "VN",
          "ZA"
        ],
        "disc_number": 1,
        "duration_ms": 186106,
        "explicit": false,
        "external_ids": {
          "isrc": "GBCVZ1700231"
        },
        "external_urls": {
          "spotify": "https://open.spotify.com/track/2wF5p2dfUbEiqAnCRVNwmK"
        },
        "href": "https://api.spotify.com/v1/tracks/2wF5p2dfUbEiqAnCRVNwmK",
        "id": "2wF5p2dfUbEiqAnCRVNwmK",
        "is_local": false,
        "name": "Tenderness",
        "popularity": 54,
        "preview_url": "https://p.scdn.co/mp3-preview/0c2e366c7930bcb326bac0b02881c06920a0a955?cid=774b29d4f13844c495f206cafdad9c86",
        "track_number": 13,
        "type": "track",
        "uri": "spotify:track:2wF5p2dfUbEiqAnCRVNwmK"
      },
      {
        "album": {
          "album_type": "ALBUM",
          "artists": [
            {
              "external_urls": {
                "spotify": "https://open.spotify.com/artist/1G9G7WwrXka3Z1r7aIDjI7"
              },
              "href": "https://api.spotify.com/v1/artists/1G9G7WwrXka3Z1r7aIDjI7",
              "id": "1G9G7WwrXka3Z1r7aIDjI7",
              "name": "OutKast",
              "type": "artist",
              "uri": "spotify:artist:1G9G7WwrXka3Z1r7aIDjI7"
            }
          ],
          "available_markets": [
            "AD",
            "AE",
            "AR",
            "AT",
            "AU",
            "BE",
            "BG",
            "BH",
            "BO",
            "BR",
            "CA",
            "CH",
            "CL",
            "CO",
            "CR",
            "CY",
            "CZ",
            "DE",
            "DK",
            "DO",
            "DZ",
            "EC",
            "EE",
            "EG",
            "ES",
            "FI",
            "FR",
            "GB",
            "GR",
            "GT",
            "HK",
            "HN",
            "HU",
            "ID",
            "IE",
            "IL",
            "IN",
            "IS",
            "IT",
            "JO",
            "JP",
            "KW",
            "LB",
            "LI",
            "LT",
            "LU",
            "LV",
            "MA",
            "MC",
            "MT",
            "MX",
            "MY",
            "NI",
            "NL",
            "NO",
            "NZ",
            "OM",
            "PA",
            "PE",
            "PH",
            "PL",
            "PS",
            "PT",
            "PY",
            "QA",
            "RO",
            "SA",
            "SE",
            "SG",
            "SK",
            "SV",
            "TH",
            "TN",
            "TR",
            "TW",
            "US",
            "UY",
            "VN",
            "ZA"
          ],
          "external_urls": {
            "spotify": "https://open.spotify.com/album/3L6JBfRxhzGzhhRDlTEdBz"
          },
          "href": "https://api.spotify.com/v1/albums/3L6JBfRxhzGzhhRDlTEdBz",
          "id": "3L6JBfRxhzGzhhRDlTEdBz",
          "images": [
            {
              "height": 640,
              "url": "https://i.scdn.co/image/a394c54228b908b9250a96464c8aecc009298369",
              "width": 640
            },
            {
              "height": 300,
              "url": "https://i.scdn.co/image/875a17b359364ec7798da5cced8dd58a88d33185",
              "width": 300
            },
            {
              "height": 64,
              "url": "https://i.scdn.co/image/42f74a261c6197c592fd1eb5aa510bb6d68f9144",
              "width": 64
            }
          ],
          "name": "Idlewild",
          "release_date": "2006-08-22",
          "release_date_precision": "day",
          "total_tracks": 25,
          "type": "album",
          "uri": "spotify:album:3L6JBfRxhzGzhhRDlTEdBz"
        },
        "artists": [
          {
            "external_urls": {
              "spotify": "https://open.spotify.com/artist/1G9G7WwrXka3Z1r7aIDjI7"
            },
            "href": "https://api.spotify.com/v1/artists/1G9G7WwrXka3Z1r7aIDjI7",
            "id": "1G9G7WwrXka3Z1r7aIDjI7",
            "name": "OutKast",
            "type": "artist",
            "uri": "spotify:artist:1G9G7WwrXka3Z1r7aIDjI7"
          },
          {
            "external_urls": {
              "spotify": "https://open.spotify.com/artist/2skahWK8IOGB6oBCbR2e7D"
            },
            "href": "https://api.spotify.com/v1/artists/2skahWK8IOGB6oBCbR2e7D",
            "id": "2skahWK8IOGB6oBCbR2e7D",
            "name": "Scar",
            "type": "artist",
            "uri": "spotify:artist:2skahWK8IOGB6oBCbR2e7D"
          },
          {
            "external_urls": {
              "spotify": "https://open.spotify.com/artist/7Dnu2NmddNymEI2LMZVH5v"
            },
            "href": "https://api.spotify.com/v1/artists/7Dnu2NmddNymEI2LMZVH5v",
            "id": "7Dnu2NmddNymEI2LMZVH5v",
            "name": "Sleepy Brown",
            "type": "artist",
            "uri": "spotify:artist:7Dnu2NmddNymEI2LMZVH5v"
          }
        ],
        "available_markets": [
          "AD",
          "AE",
          "AR",
          "AT",
          "AU",
          "BE",
          "BG",
          "BH",
          "BO",
          "BR",
          "CA",
          "CH",
          "CL",
          "CO",
          "CR",
          "CY",
          "CZ",
          "DE",
          "DK",
          "DO",
          "DZ",
          "EC",
          "EE",
          "EG",
          "ES",
          "FI",
          "FR",
          "GB",
          "GR",
          "GT",
          "HK",
          "HN",
          "HU",
          "ID",
          "IE",
          "IL",
          "IN",
          "IS",
          "IT",
          "JO",
          "JP",
          "KW",
          "LB",
          "LI",
          "LT",
          "LU",
          "LV",
          "MA",
          "MC",
          "MT",
          "MX",
          "MY",
          "NI",
          "NL",
          "NO",
          "NZ",
          "OM",
          "PA",
          "PE",
          "PH",
          "PL",
          "PS",
          "PT",
          "PY",
          "QA",
          "RO",
          "SA",
          "SE",
          "SG",
          "SK",
          "SV",
          "TH",
          "TN",
          "TR",
          "TW",
          "US",
          "UY",
          "VN",
          "ZA"
        ],
        "disc_number": 1,
        "duration_ms": 264400,
        "explicit": true,
        "external_ids": {
          "isrc": "USLF20600141"
        },
        "external_urls": {
          "spotify": "https://open.spotify.com/track/18uAu5gCnoGGNYQu8LeAr1"
        },
        "href": "https://api.spotify.com/v1/tracks/18uAu5gCnoGGNYQu8LeAr1",
        "id": "18uAu5gCnoGGNYQu8LeAr1",
        "is_local": false,
        "name": "Morris Brown - Main Version - Explicit",
        "popularity": 41,
        "preview_url": "https://p.scdn.co/mp3-preview/dda02c780a1a2fefe36c84b2fc2087c4e8af007e?cid=774b29d4f13844c495f206cafdad9c86",
        "track_number": 7,
        "type": "track",
        "uri": "spotify:track:18uAu5gCnoGGNYQu8LeAr1"
      },
      {
        "album": {
          "album_type": "ALBUM",
          "artists": [
            {
              "external_urls": {
                "spotify": "https://open.spotify.com/artist/7Ln80lUS6He07XvHI8qqHH"
              },
              "href": "https://api.spotify.com/v1/artists/7Ln80lUS6He07XvHI8qqHH",
              "id": "7Ln80lUS6He07XvHI8qqHH",
              "name": "Arctic Monkeys",
              "type": "artist",
              "uri": "spotify:artist:7Ln80lUS6He07XvHI8qqHH"
            }
          ],
          "available_markets": [
            "AD",
            "AE",
            "AR",
            "AT",
            "AU",
            "BE",
            "BG",
            "BH",
            "BO",
            "BR",
            "CH",
            "CL",
            "CO",
            "CR",
            "CY",
            "CZ",
            "DE",
            "DK",
            "DO",
            "DZ",
            "EC",
            "EE",
            "EG",
            "ES",
            "FI",
            "FR",
            "GB",
            "GR",
            "GT",
            "HK",
            "HN",
            "HU",
            "ID",
            "IE",
            "IL",
            "IN",
            "IS",
            "IT",
            "JO",
            "JP",
            "KW",
            "LB",
            "LI",
            "LT",
            "LU",
            "LV",
            "MA",
            "MC",
            "MT",
            "MX",
            "MY",
            "NI",
            "NL",
            "NO",
            "NZ",
            "OM",
            "PA",
            "PE",
            "PH",
            "PL",
            "PS",
            "PT",
            "PY",
            "QA",
            "RO",
            "SA",
            "SE",
            "SG",
            "SK",
            "SV",
            "TH",
            "TN",
            "TR",
            "TW",
            "UY",
            "VN",
            "ZA"
          ],
          "external_urls": {
            "spotify": "https://open.spotify.com/album/2ym2jcqckXqWeTDoxz3Kst"
          },
          "href": "https://api.spotify.com/v1/albums/2ym2jcqckXqWeTDoxz3Kst",
          "id": "2ym2jcqckXqWeTDoxz3Kst",
          "images": [
            {
              "height": 640,
              "url": "https://i.scdn.co/image/21f47724c01accce3466eced2967ddefdf27c7b4",
              "width": 640
            },
            {
              "height": 300,
              "url": "https://i.scdn.co/image/c633fc0e6cbef25ff8c125c5583294bbe0651a8e",
              "width": 300
            },
            {
              "height": 64,
              "url": "https://i.scdn.co/image/06945e81b4878d292f4cd7c66cbd8e1d59a3c157",
              "width": 64
            }
          ],
          "name": "Suck It and See",
          "release_date": "2011-06-06",
          "release_date_precision": "day",
          "total_tracks": 12,
          "type": "album",
          "uri": "spotify:album:2ym2jcqckXqWeTDoxz3Kst"
        },
        "artists": [
          {
            "external_urls": {
              "spotify": "https://open.spotify.com/artist/7Ln80lUS6He07XvHI8qqHH"
            },
            "href": "https://api.spotify.com/v1/artists/7Ln80lUS6He07XvHI8qqHH",
            "id": "7Ln80lUS6He07XvHI8qqHH",
            "name": "Arctic Monkeys",
            "type": "artist",
            "uri": "spotify:artist:7Ln80lUS6He07XvHI8qqHH"
          }
        ],
        "available_markets": [
          "AD",
          "AE",
          "AR",
          "AT",
          "AU",
          "BE",
          "BG",
          "BH",
          "BO",
          "BR",
          "CH",
          "CL",
          "CO",
          "CR",
          "CY",
          "CZ",
          "DE",
          "DK",
          "DO",
          "DZ",
          "EC",
          "EE",
          "EG",
          "ES",
          "FI",
          "FR",
          "GB",
          "GR",
          "GT",
          "HK",
          "HN",
          "HU",
          "ID",
          "IE",
          "IL",
          "IN",
          "IS",
          "IT",
          "JO",
          "JP",
          "KW",
          "LB",
          "LI",
          "LT",
          "LU",
          "LV",
          "MA",
          "MC",
          "MT",
          "MX",
          "MY",
          "NI",
          "NL",
          "NO",
          "NZ",
          "OM",
          "PA",
          "PE",
          "PH",
          "PL",
          "PS",
          "PT",
          "PY",
          "QA",
          "RO",
          "SA",
          "SE",
          "SG",
          "SK",
          "SV",
          "TH",
          "TN",
          "TR",
          "TW",
          "UY",
          "VN",
          "ZA"
        ],
        "disc_number": 1,
        "duration_ms": 162746,
        "explicit": false,
        "external_ids": {
          "isrc": "GBCEL1100199"
        },
        "external_urls": {
          "spotify": "https://open.spotify.com/track/1bXLpqe49cqEpj88uPR4pu"
        },
        "href": "https://api.spotify.com/v1/tracks/1bXLpqe49cqEpj88uPR4pu",
        "id": "1bXLpqe49cqEpj88uPR4pu",
        "is_local": false,
        "name": "Reckless Serenade",
        "popularity": 50,
        "preview_url": "https://p.scdn.co/mp3-preview/ad9caf8404487ba15b7f1ab4d05c8d73001c66ed?cid=774b29d4f13844c495f206cafdad9c86",
        "track_number": 8,
        "type": "track",
        "uri": "spotify:track:1bXLpqe49cqEpj88uPR4pu"
      },
      {
        "album": {
          "album_type": "ALBUM",
          "artists": [
            {
              "external_urls": {
                "spotify": "https://open.spotify.com/artist/7Ln80lUS6He07XvHI8qqHH"
              },
              "href": "https://api.spotify.com/v1/artists/7Ln80lUS6He07XvHI8qqHH",
              "id": "7Ln80lUS6He07XvHI8qqHH",
              "name": "Arctic Monkeys",
              "type": "artist",
              "uri": "spotify:artist:7Ln80lUS6He07XvHI8qqHH"
            }
          ],
          "available_markets": [
            "AD",
            "AE",
            "AR",
            "AT",
            "AU",
            "BE",
            "BG",
            "BH",
            "BO",
            "BR",
            "CH",
            "CL",
            "CO",
            "CR",
            "CY",
            "CZ",
            "DE",
            "DK",
            "DO",
            "DZ",
            "EC",
            "EE",
            "EG",
            "ES",
            "FI",
            "FR",
            "GB",
            "GR",
            "GT",
            "HK",
            "HN",
            "HU",
            "ID",
            "IE",
            "IL",
            "IN",
            "IS",
            "IT",
            "JO",
            "JP",
            "KW",
            "LB",
            "LI",
            "LT",
            "LU",
            "LV",
            "MA",
            "MC",
            "MT",
            "MX",
            "MY",
            "NI",
            "NL",
            "NO",
            "NZ",
            "OM",
            "PA",
            "PE",
            "PH",
            "PL",
            "PS",
            "PT",
            "PY",
            "QA",
            "RO",
            "SA",
            "SE",
            "SG",
            "SK",
            "SV",
            "TH",
            "TN",
            "TR",
            "TW",
            "UY",
            "VN",
            "ZA"
          ],
          "external_urls": {
            "spotify": "https://open.spotify.com/album/5IEoiwkThhRmSMBANhpxl2"
          },
          "href": "https://api.spotify.com/v1/albums/5IEoiwkThhRmSMBANhpxl2",
          "id": "5IEoiwkThhRmSMBANhpxl2",
          "images": [
            {
              "height": 640,
              "url": "https://i.scdn.co/image/3a2805cfc2d55367865b572cd536bfddf66fe267",
              "width": 640
            },
            {
              "height": 300,
              "url": "https://i.scdn.co/image/e54f0120fe0e88caddc6d6b559afd47bbf2fd032",
              "width": 300
            },
            {
              "height": 64,
              "url": "https://i.scdn.co/image/ba710ab0bb2bf5bfa080fc3d1e440fbc0b0011e8",
              "width": 64
            }
          ],
          "name": "Humbug",
          "release_date": "2009-08-20",
          "release_date_precision": "day",
          "total_tracks": 10,
          "type": "album",
          "uri": "spotify:album:5IEoiwkThhRmSMBANhpxl2"
        },
        "artists": [
          {
            "external_urls": {
              "spotify": "https://open.spotify.com/artist/7Ln80lUS6He07XvHI8qqHH"
            },
            "href": "https://api.spotify.com/v1/artists/7Ln80lUS6He07XvHI8qqHH",
            "id": "7Ln80lUS6He07XvHI8qqHH",
            "name": "Arctic Monkeys",
            "type": "artist",
            "uri": "spotify:artist:7Ln80lUS6He07XvHI8qqHH"
          }
        ],
        "available_markets": [
          "AD",
          "AE",
          "AR",
          "AT",
          "AU",
          "BE",
          "BG",
          "BH",
          "BO",
          "BR",
          "CH",
          "CL",
          "CO",
          "CR",
          "CY",
          "CZ",
          "DE",
          "DK",
          "DO",
          "DZ",
          "EC",
          "EE",
          "EG",
          "ES",
          "FI",
          "FR",
          "GB",
          "GR",
          "GT",
          "HK",
          "HN",
          "HU",
          "ID",
          "IE",
          "IL",
          "IN",
          "IS",
          "IT",
          "JO",
          "JP",
          "KW",
          "LB",
          "LI",
          "LT",
          "LU",
          "LV",
          "MA",
          "MC",
          "MT",
          "MX",
          "MY",
          "NI",
          "NL",
          "NO",
          "NZ",
          "OM",
          "PA",
          "PE",
          "PH",
          "PL",
          "PS",
          "PT",
          "PY",
          "QA",
          "RO",
          "SA",
          "SE",
          "SG",
          "SK",
          "SV",
          "TH",
          "TN",
          "TR",
          "TW",
          "UY",
          "VN",
          "ZA"
        ],
        "disc_number": 1,
        "duration_ms": 224826,
        "explicit": false,
        "external_ids": {
          "isrc": "GBCEL0900443"
        },
        "external_urls": {
          "spotify": "https://open.spotify.com/track/6wVWJl64yoTzU27EI8ep20"
        },
        "href": "https://api.spotify.com/v1/tracks/6wVWJl64yoTzU27EI8ep20",
        "id": "6wVWJl64yoTzU27EI8ep20",
        "is_local": false,
        "name": "Crying Lightning",
        "popularity": 61,
        "preview_url": "https://p.scdn.co/mp3-preview/9484b9d394aa8c504c86a151c77df01c122a2bf8?cid=774b29d4f13844c495f206cafdad9c86",
        "track_number": 2,
        "type": "track",
        "uri": "spotify:track:6wVWJl64yoTzU27EI8ep20"
      }
    ],
    "total": 50,
    "limit": 5,
    "offset": 0,
    "href": "https://api.spotify.com/v1/me/top/tracks?limit=5&offset=0",
    "previous": null,
    "next": "https://api.spotify.com/v1/me/top/tracks?limit=5&offset=5"
  }